Einführung Statistik
…
]

.pull-right45[

```r
immatrikulation %>% filter(Jahr == 2019)
```

```
## # A tibble: 26 x 3
##    Kanton          Jahr Immatrikulation…
##    <chr>          <dbl>            <dbl>
##  1 Aargau          2019              216
##  2 Appenzell Aus…  2019                6
##  3 Appenzell Inn…  2019                6
##  4 Basel-Landsch…  2019              466
##  5 Basel-Stadt     2019              360
##  6 Bern            2019               73
##  7 Freiburg        2019               12
##  8 Genf            2019                2
##  9 Glarus          2019                6
## 10 Graubünden      2019               24
## # … with 16 more rows
```
…
]

.pull-right45[

```r
immatrikulation
```

```
## # A tibble: 26 x 3
##    Kanton                 `2009` `2019`
##    <chr>                   <dbl>  <dbl>
##  1 Aargau                    173    216
##  2 Appenzell Ausserrhoden     14      6
##  3 Appenzell Innerrhoden      14      6
##  4 Basel-Landschaft          418    466
##  5 Basel-Stadt               345    360
##  6 Bern                       91     73
##  7 Freiburg                   14     12
##  8 Genf                        6      2
##  9 Glarus                      0      6
## 10 Graubünden                 29     24
## # … with 16 more rows
```
…
